SplineFontDB: 3.2
FontName: libredona-digits
FullName: LibreDona digits
FamilyName: LibreDona
Weight: Regular
Copyright: Copyright (c) 2024, Mostafa Ahangarha (<ahangarha.ir>),\nwith Reserved Font Name <Libre Dona>.\n\nThis Font Software is licensed under the SIL Open Font License, Version 1.1.\nThis license is copied below, and is also available with a FAQ at:\nhttps://openfontlicense.org\n\n\n-----------------------------------------------------------\nSIL OPEN FONT LICENSE Version 1.1 - 26 February 2007\n-----------------------------------------------------------\n\nPREAMBLE\nThe goals of the Open Font License (OFL) are to stimulate worldwide\ndevelopment of collaborative font projects, to support the font creation\nefforts of academic and linguistic communities, and to provide a free and\nopen framework in which fonts may be shared and improved in partnership\nwith others.\n\nThe OFL allows the licensed fonts to be used, studied, modified and\nredistributed freely as long as they are not sold by themselves. The\nfonts, including any derivative works, can be bundled, embedded,\nredistributed and/or sold with any software provided that any reserved\nnames are not used by derivative works. The fonts and derivatives,\nhowever, cannot be released under any other type of license. The\nrequirement for fonts to remain under this license does not apply\nto any document created using the fonts or their derivatives.\n\nDEFINITIONS\n"Font Software" refers to the set of files released by the Copyright\nHolder(s) under this license and clearly marked as such. This may\ninclude source files, build scripts and documentation.\n\n"Reserved Font Name" refers to any names specified as such after the\ncopyright statement(s).\n\n"Original Version" refers to the collection of Font Software components as\ndistributed by the Copyright Holder(s).\n\n"Modified Version" refers to any derivative made by adding to, deleting,\nor substituting -- in part or in whole -- any of the components of the\nOriginal Version, by changing formats or by porting the Font Software to a\nnew environment.\n\n"Author" refers to any designer, engineer, programmer, technical\nwriter or other person who contributed to the Font Software.\n\nPERMISSION & CONDITIONS\nPermission is hereby granted, free of charge, to any person obtaining\na copy of the Font Software, to use, study, copy, merge, embed, modify,\nredistribute, and sell modified and unmodified copies of the Font\nSoftware, subject to the following conditions:\n\n1) Neither the Font Software nor any of its individual components,\nin Original or Modified Versions, may be sold by itself.\n\n2) Original or Modified Versions of the Font Software may be bundled,\nredistributed and/or sold with any software, provided that each copy\ncontains the above copyright notice and this license. These can be\nincluded either as stand-alone text files, human-readable headers or\nin the appropriate machine-readable metadata fields within text or\nbinary files as long as those fields can be easily viewed by the user.\n\n3) No Modified Version of the Font Software may use the Reserved Font\nName(s) unless explicit written permission is granted by the corresponding\nCopyright Holder. This restriction only applies to the primary font name as\npresented to the users.\n\n4) The name(s) of the Copyright Holder(s) or the Author(s) of the Font\nSoftware shall not be used to promote, endorse or advertise any\nModified Version, except to acknowledge the contribution(s) of the\nCopyright Holder(s) and the Author(s) or with their explicit written\npermission.\n\n5) The Font Software, modified or unmodified, in part or in whole,\nmust be distributed entirely under this license, and must not be\ndistributed under any other license. The requirement for fonts to\nremain under this license does not apply to any document created\nusing the Font Software.\n\nTERMINATION\nThis license becomes null and void if any of the above conditions are\nnot met.\n\nDISCLAIMER\nTHE FONT SOFTWARE IS PROVIDED "AS IS", WITHOUT WARRANTY OF ANY KIND,\nEXPRESS OR IMPLIED, INCLUDING BUT NOT LIMITED TO ANY WARRANTIES OF\nMERCHANTABILITY, FITNESS FOR A PARTICULAR PURPOSE AND NONINFRINGEMENT\nOF COPYRIGHT, PATENT, TRADEMARK, OR OTHER RIGHT. IN NO EVENT SHALL THE\nCOPYRIGHT HOLDER BE LIABLE FOR ANY CLAIM, DAMAGES OR OTHER LIABILITY,\nINCLUDING ANY GENERAL, SPECIAL, INDIRECT, INCIDENTAL, OR CONSEQUENTIAL\nDAMAGES, WHETHER IN AN ACTION OF CONTRACT, TORT OR OTHERWISE, ARISING\nFROM, OUT OF THE USE OR INABILITY TO USE THE FONT SOFTWARE OR FROM\nOTHER DEALINGS IN THE FONT SOFTWARE.\n
Version: 0.2
ItalicAngle: 0
UnderlinePosition: 0
UnderlineWidth: 0
Ascent: 800
Descent: 200
InvalidEm: 0
LayerCount: 2
Layer: 0 0 "Back" 1
Layer: 1 0 "Fore" 0
XUID: [1021 708 177467025 13647759]
FSType: 0
OS2Version: 0
OS2_WeightWidthSlopeOnly: 0
OS2_UseTypoMetrics: 0
CreationTime: 1716999389
ModificationTime: 1717253615
PfmFamily: 33
TTFWeight: 400
TTFWidth: 5
LineGap: 90
VLineGap: 90
OS2TypoAscent: 0
OS2TypoAOffset: 1
OS2TypoDescent: 0
OS2TypoDOffset: 1
OS2TypoLinegap: 90
OS2WinAscent: 0
OS2WinAOffset: 1
OS2WinDescent: 0
OS2WinDOffset: 1
HheadAscent: 0
HheadAOffset: 1
HheadDescent: 0
HheadDOffset: 1
OS2Vendor: 'PfEd'
Lookup: 258 0 0 "'kern' Horizontal Kerning for digits" { "'kern' Arabic digits with zero" [150,15,2] "'kern' Arabic digits with Decimal Separator" [150,15,2] "'kern' Latin digits with period" [150,15,2] } ['kern' ('DFLT' <'dflt' > 'arab' <'dflt' > ) ]
MarkAttachClasses: 1
DEI: 91125
LangName: 1033
Encoding: UnicodeBmp
Compacted: 1
UnicodeInterp: none
NameList: AGL For New Fonts
DisplaySize: -48
AntiAlias: 1
FitToEm: 0
WinInfo: 0 38 14
BeginPrivate: 0
EndPrivate
TeXData: 1 0 0 209715 104857 69905 0 1048576 69905 783286 444596 497025 792723 393216 433062 380633 303038 157286 324010 404750 52429 2506097 1059062 262144
BeginChars: 65536 38

StartChar: .notdef
Encoding: 0 0 0
GlifName: _notdef
Width: 0
VWidth: 750
Flags: MW
LayerCount: 2
Fore
Validated: 1
EndChar

StartChar: uni06F1
Encoding: 1777 1777 1
GlifName: uni06F_1
Width: 200
VWidth: 750
Flags: MW
LayerCount: 2
Fore
Refer: 28 1633 N 1 0 0 1 0 0 2
Validated: 1
EndChar

StartChar: uni06F2
Encoding: 1778 1778 2
GlifName: uni06F_2
Width: 450
VWidth: 750
Flags: MW
LayerCount: 2
Fore
Refer: 29 1634 N 1 0 0 1 0 0 2
Validated: 1
Kerns2: 10 -200 "'kern' Arabic digits with zero" 12 -100 "'kern' Arabic digits with Decimal Separator"
EndChar

StartChar: uni06F3
Encoding: 1779 1779 3
GlifName: uni06F_3
Width: 500
VWidth: 750
Flags: MW
LayerCount: 2
Fore
Refer: 30 1635 N 1 0 0 1 0 0 2
Validated: 1
Kerns2: 10 -250 "'kern' Arabic digits with zero" 12 -100 "'kern' Arabic digits with Decimal Separator"
EndChar

StartChar: uni06F4
Encoding: 1780 1780 4
GlifName: uni06F_4
Width: 500
VWidth: 750
Flags: MW
LayerCount: 2
Fore
SplineSet
50 600 m 1
 150 600 l 1
 150 450 l 1
 250 450 l 1
 250 600 l 1
 400 600 l 1
 400 500 l 1
 350 500 l 1
 350 450 l 1
 450 450 l 1
 450 350 l 1
 150 350 l 1
 150 0 l 1
 50 0 l 1
 50 600 l 1
EndSplineSet
Validated: 1
Kerns2: 10 -250 "'kern' Arabic digits with zero" 12 -100 "'kern' Arabic digits with Decimal Separator"
EndChar

StartChar: uni06F5
Encoding: 1781 1781 5
GlifName: uni06F_5
Width: 500
VWidth: 750
Flags: MW
LayerCount: 2
Fore
SplineSet
50 600 m 1
 150 600 l 1
 150 550 l 1
 450 550 l 1
 450 0 l 1
 50 0 l 1
 50 600 l 1
150 450 m 1
 150 100 l 1
 200 100 l 1
 200 150 l 1
 300 150 l 1
 300 100 l 1
 350 100 l 1
 350 450 l 1
 150 450 l 1
EndSplineSet
Validated: 1
EndChar

StartChar: uni06F6
Encoding: 1782 1782 6
GlifName: uni06F_6
Width: 450
VWidth: 750
Flags: MW
LayerCount: 2
Fore
SplineSet
50 600 m 1
 150 600 l 1
 150 450 l 1
 300 450 l 1
 300 600 l 1
 400 600 l 1
 400 0 l 1
 300 0 l 1
 300 350 l 1
 50 350 l 1
 50 600 l 1
EndSplineSet
Validated: 1
EndChar

StartChar: uni06F7
Encoding: 1783 1783 7
GlifName: uni06F_7
Width: 500
VWidth: 750
Flags: MW
LayerCount: 2
Fore
Refer: 34 1639 N 1 0 0 1 0 0 2
Validated: 1
EndChar

StartChar: uni06F8
Encoding: 1784 1784 8
GlifName: uni06F_8
Width: 500
VWidth: 750
Flags: MW
LayerCount: 2
Fore
Refer: 35 1640 N 1 0 0 1 0 0 2
Validated: 1
EndChar

StartChar: uni06F9
Encoding: 1785 1785 9
GlifName: uni06F_9
Width: 400
VWidth: 750
Flags: MW
LayerCount: 2
Fore
Refer: 36 1641 N 1 0 0 1 0 0 2
Validated: 1
EndChar

StartChar: uni06F0
Encoding: 1776 1776 10
GlifName: uni06F_0
Width: 400
VWidth: 750
Flags: MW
LayerCount: 2
Fore
SplineSet
50 300 m 1
 350 300 l 1
 350 0 l 1
 50 0 l 1
 50 300 l 1
150 200 m 1
 150 100 l 1
 250 100 l 1
 250 200 l 1
 150 200 l 1
EndSplineSet
Validated: 1
Kerns2: 6 -200 "'kern' Arabic digits with zero" 9 -150 "'kern' Arabic digits with zero"
EndChar

StartChar: space
Encoding: 32 32 11
GlifName: space
Width: 200
VWidth: 750
Flags: MW
LayerCount: 2
Fore
Validated: 1
EndChar

StartChar: uni066B
Encoding: 1643 1643 12
GlifName: uni066B_
Width: 200
VWidth: 750
Flags: MW
LayerCount: 2
Fore
SplineSet
100 100 m 1
 150 100 l 1
 150 -100 l 1
 100 -100 l 1
 100 -200 l 1
 50 -200 l 1
 50 0 l 1
 100 0 l 1
 100 100 l 1
EndSplineSet
Validated: 1
Kerns2: 6 -100 "'kern' Arabic digits with Decimal Separator" 9 -100 "'kern' Arabic digits with Decimal Separator" 33 -100 "'kern' Arabic digits with Decimal Separator" 36 -100 "'kern' Arabic digits with Decimal Separator"
EndChar

StartChar: hyphen
Encoding: 45 45 13
GlifName: hyphen
Width: 400
VWidth: 750
Flags: MW
LayerCount: 2
Fore
SplineSet
50 200 m 1
 350 200 l 1
 350 100 l 1
 50 100 l 1
 50 200 l 1
EndSplineSet
Validated: 1
EndChar

StartChar: plus
Encoding: 43 43 14
GlifName: plus
Width: 400
VWidth: 750
Flags: MW
LayerCount: 2
Fore
SplineSet
150 300 m 1
 250 300 l 1
 250 200 l 1
 350 200 l 1
 350 100 l 1
 250 100 l 1
 250 0 l 1
 150 0 l 1
 150 100 l 1
 50 100 l 1
 50 200 l 1
 150 200 l 1
 150 300 l 1
EndSplineSet
Validated: 1
EndChar

StartChar: equal
Encoding: 61 61 15
GlifName: equal
Width: 400
VWidth: 750
Flags: MW
LayerCount: 2
Fore
SplineSet
50 300 m 1
 350 300 l 1
 350 200 l 1
 50 200 l 1
 50 300 l 1
50 100 m 1
 350 100 l 1
 350 0 l 1
 50 0 l 1
 50 100 l 1
EndSplineSet
Validated: 1
EndChar

StartChar: zero
Encoding: 48 48 16
GlifName: zero
Width: 500
VWidth: 750
Flags: MW
LayerCount: 2
Fore
SplineSet
50 600 m 1
 450 600 l 1
 450 0 l 1
 50 0 l 1
 50 600 l 1
150 500 m 1
 150 100 l 1
 350 100 l 1
 350 500 l 1
 150 500 l 1
EndSplineSet
Validated: 1
EndChar

StartChar: one
Encoding: 49 49 17
GlifName: one
Width: 200
VWidth: 750
Flags: MW
LayerCount: 2
Fore
SplineSet
50 600 m 1
 150 600 l 1
 150 0 l 1
 50 0 l 1
 50 600 l 1
EndSplineSet
Validated: 1
EndChar

StartChar: two
Encoding: 50 50 18
GlifName: two
Width: 500
VWidth: 750
Flags: MW
LayerCount: 2
Fore
SplineSet
50 600 m 1
 450 600 l 1
 450 200 l 1
 150 200 l 1
 150 100 l 1
 450 100 l 1
 450 0 l 1
 50 0 l 1
 50 300 l 1
 350 300 l 1
 350 500 l 1
 150 500 l 1
 150 400 l 1
 50 400 l 1
 50 600 l 1
EndSplineSet
Validated: 1
EndChar

StartChar: three
Encoding: 51 51 19
GlifName: three
Width: 500
VWidth: 750
Flags: MW
LayerCount: 2
Fore
SplineSet
50 600 m 1
 450 600 l 1
 450 0 l 1
 50 0 l 1
 50 100 l 1
 350 100 l 1
 350 250 l 1
 150 250 l 1
 150 350 l 1
 350 350 l 1
 350 500 l 1
 50 500 l 1
 50 600 l 1
EndSplineSet
Validated: 1
EndChar

StartChar: four
Encoding: 52 52 20
GlifName: four
Width: 500
VWidth: 750
Flags: MW
LayerCount: 2
Fore
SplineSet
50 600 m 1
 150 600 l 1
 150 400 l 1
 350 400 l 1
 350 600 l 1
 450 600 l 1
 450 0 l 1
 350 0 l 1
 350 300 l 1
 50 300 l 1
 50 600 l 1
EndSplineSet
Validated: 1
EndChar

StartChar: five
Encoding: 53 53 21
GlifName: five
Width: 500
VWidth: 750
Flags: MW
LayerCount: 2
Fore
SplineSet
50 600 m 1
 450 600 l 1
 450 500 l 1
 150 500 l 1
 150 400 l 1
 450 400 l 1
 450 0 l 1
 50 0 l 1
 50 200 l 1
 150 200 l 1
 150 100 l 1
 350 100 l 1
 350 300 l 1
 50 300 l 1
 50 600 l 1
EndSplineSet
Validated: 1
EndChar

StartChar: six
Encoding: 54 54 22
GlifName: six
Width: 500
VWidth: 750
Flags: MW
LayerCount: 2
Fore
SplineSet
50 600 m 1
 450 600 l 1
 450 500 l 1
 150 500 l 1
 150 400 l 1
 450 400 l 1
 450 0 l 1
 50 0 l 1
 50 600 l 1
150 300 m 1
 150 100 l 1
 350 100 l 1
 350 300 l 1
 150 300 l 1
EndSplineSet
Validated: 1
EndChar

StartChar: seven
Encoding: 55 55 23
GlifName: seven
Width: 450
VWidth: 750
Flags: MW
LayerCount: 2
Fore
SplineSet
50 500 m 1
 50 600 l 1
 400 600 l 1
 400 0 l 1
 300 0 l 1
 300 500 l 1
 50 500 l 1
EndSplineSet
Validated: 1
EndChar

StartChar: eight
Encoding: 56 56 24
GlifName: eight
Width: 500
VWidth: 750
Flags: MW
LayerCount: 2
Fore
SplineSet
50 600 m 1
 450 600 l 1
 450 0 l 1
 50 0 l 1
 50 600 l 1
150 500 m 1
 150 400 l 1
 350 400 l 1
 350 500 l 1
 150 500 l 1
150 300 m 1
 150 100 l 1
 350 100 l 1
 350 300 l 1
 150 300 l 1
EndSplineSet
Validated: 1
EndChar

StartChar: nine
Encoding: 57 57 25
GlifName: nine
Width: 500
VWidth: 750
Flags: MW
LayerCount: 2
Fore
SplineSet
50 600 m 1
 450 600 l 1
 450 0 l 1
 50 0 l 1
 50 100 l 1
 350 100 l 1
 350 200 l 1
 50 200 l 1
 50 600 l 1
150 500 m 1
 150 300 l 1
 350 300 l 1
 350 500 l 1
 150 500 l 1
EndSplineSet
Validated: 1
EndChar

StartChar: period
Encoding: 46 46 26
GlifName: period
Width: 300
VWidth: 750
Flags: MW
LayerCount: 2
Fore
SplineSet
50 200 m 1
 250 200 l 1
 250 0 l 1
 50 0 l 1
 50 200 l 1
EndSplineSet
Validated: 1
Kerns2: 20 -250 "'kern' Latin digits with period" 23 -200 "'kern' Latin digits with period"
EndChar

StartChar: uni0660
Encoding: 1632 1632 27
Width: 300
VWidth: 750
Flags: MW
LayerCount: 2
Fore
SplineSet
50 200 m 1
 250 200 l 1
 250 0 l 1
 50 0 l 1
 50 200 l 1
EndSplineSet
Validated: 1
Kerns2: 33 -150 "'kern' Arabic digits with zero" 36 -150 "'kern' Arabic digits with zero"
EndChar

StartChar: uni0661
Encoding: 1633 1633 28
Width: 200
VWidth: 750
Flags: MW
LayerCount: 2
Fore
SplineSet
50 600 m 1
 150 600 l 1
 150 0 l 1
 50 0 l 1
 50 600 l 1
EndSplineSet
Validated: 1
EndChar

StartChar: uni0662
Encoding: 1634 1634 29
Width: 450
VWidth: 750
Flags: MW
LayerCount: 2
Fore
SplineSet
50 600 m 1
 150 600 l 1
 150 450 l 1
 300 450 l 1
 300 600 l 1
 400 600 l 1
 400 350 l 1
 150 350 l 1
 150 0 l 1
 50 0 l 1
 50 600 l 1
EndSplineSet
Validated: 1
Kerns2: 12 -100 "'kern' Arabic digits with zero" 27 -150 "'kern' Arabic digits with zero"
EndChar

StartChar: uni0663
Encoding: 1635 1635 30
Width: 500
VWidth: 750
Flags: MW
LayerCount: 2
Fore
SplineSet
50 600 m 1
 150 600 l 1
 150 450 l 1
 200 450 l 1
 200 550 l 1
 300 550 l 1
 300 450 l 1
 350 450 l 1
 350 600 l 1
 450 600 l 1
 450 350 l 1
 150 350 l 1
 150 0 l 1
 50 0 l 1
 50 600 l 1
EndSplineSet
Validated: 1
Kerns2: 12 -100 "'kern' Arabic digits with Decimal Separator" 27 -150 "'kern' Arabic digits with zero"
EndChar

StartChar: uni0664
Encoding: 1636 1636 31
Width: 400
VWidth: 750
Flags: HMW
LayerCount: 2
Fore
SplineSet
350 600 m 1
 350 500 l 1
 150 500 l 1
 150 350 l 1
 300 350 l 1
 300 250 l 1
 150 250 l 1
 150 100 l 1
 350 100 l 1
 350 0 l 1
 50 0 l 1
 50 600 l 1
 350 600 l 1
EndSplineSet
Validated: 1
EndChar

StartChar: uni0665
Encoding: 1637 1637 32
Width: 500
VWidth: 750
Flags: MW
LayerCount: 2
Fore
SplineSet
50 600 m 1
 150 600 l 1
 150 550 l 1
 450 550 l 1
 450 0 l 1
 50 0 l 1
 50 600 l 1
350 100 m 1
 350 450 l 1
 150 450 l 1
 150 100 l 1
 350 100 l 1
EndSplineSet
Validated: 1
EndChar

StartChar: uni0666
Encoding: 1638 1638 33
Width: 400
VWidth: 750
Flags: MW
LayerCount: 2
Fore
SplineSet
350 600 m 1
 350 0 l 1
 250 0 l 1
 250 500 l 1
 50 500 l 1
 50 600 l 1
 350 600 l 1
EndSplineSet
Validated: 1
EndChar

StartChar: uni0667
Encoding: 1639 1639 34
Width: 500
VWidth: 750
Flags: MW
LayerCount: 2
Fore
SplineSet
50 600 m 1
 150 600 l 1
 150 100 l 1
 350 100 l 1
 350 600 l 1
 450 600 l 1
 450 0 l 1
 50 0 l 1
 50 600 l 1
EndSplineSet
Validated: 1
EndChar

StartChar: uni0668
Encoding: 1640 1640 35
Width: 500
VWidth: 750
Flags: MW
LayerCount: 2
Fore
SplineSet
50 600 m 1
 450 600 l 1
 450 0 l 1
 350 0 l 1
 350 500 l 1
 150 500 l 1
 150 0 l 1
 50 0 l 1
 50 600 l 1
EndSplineSet
Validated: 1
EndChar

StartChar: uni0669
Encoding: 1641 1641 36
Width: 400
VWidth: 750
Flags: MW
LayerCount: 2
Fore
SplineSet
50 600 m 1
 350 600 l 1
 350 0 l 1
 250 0 l 1
 250 350 l 1
 50 350 l 1
 50 600 l 1
150 500 m 1
 150 450 l 1
 250 450 l 1
 250 500 l 1
 150 500 l 1
EndSplineSet
Validated: 1
EndChar

StartChar: uni066C
Encoding: 1644 1644 37
Width: 200
VWidth: 750
Flags: W
LayerCount: 2
Fore
Refer: 12 1643 N 1 0 0 1 0 600 2
Validated: 1
EndChar
EndChars
EndSplineFont
